How ISIS Uses Twitter
…
time_predict = proc.time() # timing model predictions
y_class_vec <- predict_classes(object = nn_model, x = as.matrix(x_test)) %>% as.vector()
proc.time() - time_predict

##    user  system elapsed 
##    0.17    0.10    0.14

actual_class = as.factor(y_test_vec)
estimate_class = as.factor(y_class_vec)
actual_estimate_tbl <- tibble(actual_class,estimate_class)
actual_estimate_tbl

## # A tibble: 831 x 2
##    actual_class estimate_class
##    <fct>        <fct>         
##  1 1            1             
##  2 1            1             
##  3 1            3             
##  4 1            1             
##  5 1            1             
##  6 1            1             
##  7 1            1             
##  8 1            1             
##  9 3            3             
## 10 3            3             
## # ... with 821 more rows
…
